<svg width="20" height="22" viewBox="0 0 20 22" version="1.1" xmlns="http://www.w3.org/2000/svg" xmlns:xlink="http://www.w3.org/1999/xlink">
<g id="Canvas" fill="none">
<g id="home">
<g id="Page 1">
<g id="feather icon">
<g id="home_2">
<g id="Shape">
<path d="M 0 7L 9 0L 18 7L 18 18C 18 19.1046 17.1046 20 16 20L 2 20C 0.89543 20 0 19.1046 0 18L 0 7Z" stroke-width="2" stroke-linecap="round" stroke-linejoin="round" transform="translate(1 1)" stroke="#3A4047"/>
</g>
<g id="Shape_2">
<path d="M 0 10L 0 0L 6 0L 6 10" stroke-width="2" stroke-linecap="round" stroke-linejoin="round" transform="translate(7 11)" stroke="#3A4047"/>
</g>
</g>
</g>
</g>
</g>
</g>
</svg>

