<svg width="24" height="24" viewBox="0 0 24 24" version="1.1" xmlns="http://www.w3.org/2000/svg" xmlns:xlink="http://www.w3.org/1999/xlink">
<path stroke="currentcolor" d="M 4 2C 4 3.10457 3.10457 4 2 4C 0.89543 4 0 3.10457 0 2C 0 0.89543 0.89543 0 2 0C 3.10457 0 4 0.89543 4 2Z" stroke-width="2" stroke-linecap="round" stroke-linejoin="round" transform="translate(6 19)" />
<path stroke="currentcolor" d="M 4 2C 4 3.10457 3.10457 4 2 4C 0.89543 4 0 3.10457 0 2C 0 0.89543 0.89543 0 2 0C 3.10457 0 4 0.89543 4 2Z" stroke-width="2" stroke-linecap="round" stroke-linejoin="round" transform="translate(18 19)" />
<path stroke="currentcolor" d="M 4.67 5L 22 5L 20.32 13.39C 20.1313 14.3402 19.2886 15.0186 18.32 15L 7.75 15C 6.73948 15.0086 5.88134 14.262 5.75 13.26L 4.23 1.74C 4.09962 0.745596 3.25291 0.00151856 2.25 0L 0 0" stroke-width="2" stroke-linecap="round" stroke-linejoin="round" transform="translate(1 1)"/>
</svg>

