<svg width="20" height="22" viewBox="0 0 20 22" version="1.1" xmlns="http://www.w3.org/2000/svg" xmlns:xlink="http://www.w3.org/1999/xlink">
<g id="Canvas" fill="none">
<g id="trash">
<g id="Page 1">
<g id="feather icon">
<g id="trash_2">
<g id="Shape">
<path d="M 0 0L 2 0L 18 0" stroke-width="2" stroke-linecap="round" stroke-linejoin="round" transform="translate(1 5)" stroke="#3A4047"/>
</g>
<g id="Shape_2">
<path d="M 3 4L 3 2C 3 0.89543 3.89543 0 5 0L 9 0C 10.1046 0 11 0.89543 11 2L 11 4M 14 4L 14 18C 14 19.1046 13.1046 20 12 20L 2 20C 0.89543 20 0 19.1046 0 18L 0 4L 14 4Z" stroke-width="2" stroke-linecap="round" stroke-linejoin="round" transform="translate(3 1)" stroke="#3A4047"/>
</g>
</g>
</g>
</g>
</g>
</g>
</svg>

